Pharmacokinetics of ceftolozane with tazobactam in critically ill patients - Bayesian approach
…
Code

pars = c("lp__", "CLCHat", "QCHat", "V1CHat", "V2CHat",
         "CLTHat", "QTHat", "V1THat", "V2THat",
         "omega", "sigma","nu")
ptable <- mod5_res$summary(c(pars)) %>%
  mutate_if(is.numeric, ~formatC(., 3)) %>% 
  rename(parameter = variable) %>%
  mutate("90% CI" = paste("(", q5, ", ", q95, ")", 
                          sep = "")) %>%
select(parameter, mean, median, sd, mad, "90% CI", ess_bulk, ess_tail, rhat)
ptable

# A tibble: 21 × 9
   parameter mean    median sd     mad    `90% CI`      ess_bulk  ess_tail rhat 
   <chr>     <chr>   <chr>  <chr>  <chr>  <chr>         <chr>     <chr>    <chr>
 1 lp__      "-3.05" -2.7   10.1   10.1   (-19.8, 13.2) "1.25e+0… 2.22e+03 "   …
 2 CLCHat    "5.79"  5.74   0.709  0.692  (4.71, 7.06)  " 832"    1.47e+03 "1.0…
 3 QCHat     "2.67"  2.58   0.717  0.67   (1.69, 3.95)  "5.78e+0… 3.15e+03 "   …
 4 V1CHat    "22.4"  22.3   2.81   2.73   (17.7,   27)  "1.91e+0… 2.34e+03 "   …
 5 V2CHat    "4.41"  4.28   1.15   1.09   (2.81, 6.51)  "6.28e+0… 3.12e+03 "   …
 6 CLTHat    "15.4"  15.2   1.72   1.66   (12.8, 18.4)  "1.81e+0… 2.61e+03 "   …
 7 QTHat     "4.55"  4.43   1.15   1.13   (2.92, 6.64)  "5.82e+0… 3.09e+03 "   …
 8 V1THat    "  36"  35.9   5.37   5.42   (27.2,   45)  "2.16e+0… 2.9e+03  "   …
 9 V2THat    "5.26"  5.11   1.29   1.26   (3.44, 7.56)  "6.4e+03" 2.17e+03 "   …
10 omega[1]  "0.471" 0.464  0.0711 0.0667 (0.366,  0.6) "1.82e+0… 2.41e+03 "   …
# ℹ 11 more rows
…
Code

pars2 = c("lp__", "rho")
ptable <- mod5_res$summary(c(pars2)) %>%
  mutate_if(is.numeric, ~formatC(., 3)) %>% 
  rename(parameter = variable) %>%
  mutate("90% CI" = paste("(", q5, ", ", q95, ")", 
                          sep = "")) %>%
select(parameter, mean, median, sd, mad, "90% CI", ess_bulk, ess_tail, rhat)
ptable

# A tibble: 65 × 9
   parameter mean       median     sd     mad   `90% CI` ess_bulk ess_tail rhat 
   <chr>     <chr>      <chr>      <chr>  <chr> <chr>    <chr>    <chr>    <chr>
 1 lp__      "-3.05"    "-2.7"     "10.1" "10.… (-19.8,… "1.25e+… "2.22e+… "   …
 2 rho[1,1]  "   1"     "   1"     "   0" "   … (   1, … "  NA"   "  NA"   "  N…
 3 rho[2,1]  "-0.0155"  "-0.0149"  "0.19… "0.2… (-0.342… "6.45e+… "2.86e+… "   …
 4 rho[3,1]  "0.171"    "0.174"    "0.16… "0.1… (-0.097… "2.79e+… "3.18e+… "   …
 5 rho[4,1]  "0.0305"   "0.0329"   "0.19… "0.1… (-0.286… "5.5e+0… "2.45e+… "   …
 6 rho[5,1]  "0.265"    "0.272"    "0.15… "0.1… (-0.000… "3.47e+… "2.86e+… "   …
 7 rho[6,1]  "0.000133" "-0.00071" "0.18… "0.1… (-0.309… "6.91e+… "2.8e+0… "   …
 8 rho[7,1]  "0.173"    "0.176"    "0.15… "0.1… (-0.087… "2.66e+… "2.6e+0… "   …
 9 rho[8,1]  "0.0245"   "0.0265"   "0.18… "0.1… (-0.292… "7.48e+… "3.08e+… "   …
10 rho[1,2]  "-0.0155"  "-0.0149"  "0.19… "0.2… (-0.342… "6.45e+… "2.86e+… "   …
# ℹ 55 more rows
…
